@startuml SmartJob
autonumber

actor User
participant SmartJob
database H2 #LightBlue

== GetUsers / SmartJob ==

    User -> SmartJob: POST /smart-job/login
    SmartJob -> H2: Consulta/Valida username y password
    H2 -> SmartJob: Retorna usuario valido
    SmartJob -> SmartJob: Genera token
    SmartJob -> User: Retorna token valido
    User -> SmartJob: GET /smart-job/users con Authorization: Bearer {token}
    SmartJob -> SmartJob: Valida token
    SmartJob -> H2: Consulta usuarios
    H2 -> SmartJob: Retorna usuarios
    SmartJob -> User: Listado usuarios json
@enduml